{
  "swagger": "2.0",
  "info": {
    "description": "Node Microservice API",
    "version": "0.1",
    "title": "Node Microservice API"
  },
  "paths": {
    "/": {
      "get": {
        "produces": ["text/plain"],
        "parameters": [],
        "responses": {
          "200": {
            "description": "Healthcheck"
          }
        }
      }
    },
    "/todo": {
      "get": {
        "produces": ["application/json"],
        "parameters": [],
        "description": "Get all the Todos",
        "responses": {
          "200": {
            "schema": {
              "$ref": "#/definitions/Todos"
            }
          }
        }
      },
      "post": {
        "consumes": ["application/json"],
        "produces": ["application/json"],
        "description": "Create a new Todo",
        "parameters": [
          {
            "in": "body",
            "name": "body",
            "required": true,
            "description": "New Todo text",
            "schema": {
              "$ref": "#/definitions/TodoCreate"
            },
            "x-examples": {
              "application/json": "{\"description\": \"Don't forget\"}"
            }
          }
        ],
        "responses": {
          "200": {
            "description": "Definition generated from Swagger Inspector",
            "schema": {
              "$ref": "#/definitions/Todos"
            }
          }
        }
      }
    },
    "/todo/{id}": {
      "post": {
        "consumes": ["application/json"],
        "produces": ["application/json"],
        "description": "Toggle the Todo completed status",
        "parameters": [
          {
            "in": "path",
            "name": "id",
            "required": true,
            "type": "string"
          }
        ],
        "responses": {
          "200": {
            "description": "Updated Todo",
            "schema": {
              "$ref": "#/definitions/Todo"
            }
          }
        }
      },
      "put": {
        "consumes": ["application/json"],
        "produces": ["application/json"],
        "description": "Toggle the Todo completed status",
        "parameters": [
          {
            "in": "path",
            "name": "id",
            "required": true,
            "type": "string"
          }
        ],
        "responses": {
          "200": {
            "description": "Updated Todo",
            "schema": {
              "$ref": "#/definitions/Todo"
            }
          }
        }
      },
      "delete": {
        "consumes": ["application/json"],
        "produces": ["application/json"],
        "description": "Delete the Todo",
        "parameters": [
          {
            "in": "path",
            "name": "id",
            "required": true,
            "type": "string"
          }
        ],
        "responses": {
          "200": {
            "description": "Deleted Todo",
            "schema": {
              "$ref": "#/definitions/Todo"
            }
          }
        }
      }
    },
    "/message/todo": {
      "post": {
        "consumes": ["application/json"],
        "produces": ["application/json"],
        "description": "Insert a message in the Todo Queue",
        "parameters": [
          {
            "in": "body",
            "name": "body",
            "required": false,
            "schema": {
              "$ref": "#/definitions/TodoCreate"
            },
            "x-examples": {
              "application/json": "{\"message\": \"Don't forget\"}"
            }
          }
        ],
        "responses": {
          "200": {
            "description": "Definition generated from Swagger Inspector",
            "schema": {
              "$ref": "#/definitions/Success"
            }
          }
        }
      }
    }
  },
  "definitions": {
    "Todo": {
      "properties": {
        "_id": {
          "type": "string"
        },
        "__v": {
          "type": "integer",
          "format": "int32"
        },
        "description": {
          "type": "string"
        },
        "completed": {
          "type": "boolean"
        },
        "createdAt": {
          "type": "string"
        },
        "updatedAt": {
          "type": "string"
        }
      }
    },
    "Todos": {
      "type": "array",
      "items": {
        "$ref": "#/definitions/Todo"
      }
    },
    "TodoCreate": {
      "properties": {
        "description": {
          "type": "string"
        }
      }
    },
    "Success": {
      "properties": {
        "success": {
          "type": "boolean"
        }
      }
    }
  }
}
